<svg id="Group_29" data-name="Group 29" xmlns="http://www.w3.org/2000/svg" width="110.123" height="110.123" viewBox="0 0 110.123 110.123">
  <path id="Path_132" data-name="Path 132" d="M964.638,374.851V484.974h110.123V374.851Zm16.335,60.306a4.379,4.379,0,0,1-1.411,1.579,5.911,5.911,0,0,1-2.005.848,10.4,10.4,0,0,1-2.319.258,9.1,9.1,0,0,1-2.369-.3,5.625,5.625,0,0,1-1.986-.967,4.8,4.8,0,0,1-1.38-1.7,5.578,5.578,0,0,1-.514-2.513h3.749a2.277,2.277,0,0,0,.786,1.868,3.28,3.28,0,0,0,1.936.515,4.116,4.116,0,0,0,.837-.085,2.517,2.517,0,0,0,.735-.268,1.526,1.526,0,0,0,.525-.483,1.285,1.285,0,0,0,.2-.73,1.08,1.08,0,0,0-.353-.837,3.1,3.1,0,0,0-.937-.559,10,10,0,0,0-1.321-.419q-.736-.183-1.522-.419a15.485,15.485,0,0,1-1.522-.559,5.251,5.251,0,0,1-1.351-.827,3.773,3.773,0,0,1-1.341-3.039,4.086,4.086,0,0,1,.534-2.137,4.457,4.457,0,0,1,1.381-1.45,6.026,6.026,0,0,1,1.895-.817,8.588,8.588,0,0,1,2.056-.257,7.793,7.793,0,0,1,2.106.29,5.559,5.559,0,0,1,1.845.891,4.487,4.487,0,0,1,1.814,3.759h-3.749a1.541,1.541,0,0,0-.716-1.439,2.347,2.347,0,0,0-.756-.312,3.824,3.824,0,0,0-.846-.1,3.163,3.163,0,0,0-.625.065,1.931,1.931,0,0,0-.585.215,1.317,1.317,0,0,0-.433.4,1.09,1.09,0,0,0-.171.634.889.889,0,0,0,.352.73,3.407,3.407,0,0,0,.948.494,11.7,11.7,0,0,0,1.341.387q.746.172,1.532.407a12.878,12.878,0,0,1,1.532.57,5.376,5.376,0,0,1,1.331.837,3.868,3.868,0,0,1,.947,1.246,3.994,3.994,0,0,1,.363,1.772A5.1,5.1,0,0,1,980.973,435.157Zm5.372-3.629a4.6,4.6,0,0,0,.584,1.46,3.13,3.13,0,0,0,1.039,1.032,2.913,2.913,0,0,0,1.542.386,2.763,2.763,0,0,0,2.067-.751,3.219,3.219,0,0,0,.837-2.083h3.749a7.44,7.44,0,0,1-.6,2.652,6.02,6.02,0,0,1-1.392,1.976,5.861,5.861,0,0,1-2.036,1.224,7.491,7.491,0,0,1-2.541.419,6.9,6.9,0,0,1-2.963-.623,6.721,6.721,0,0,1-2.268-1.707,7.692,7.692,0,0,1-1.442-2.535,9.936,9.936,0,0,1,0-6.249,7.692,7.692,0,0,1,1.442-2.535,6.746,6.746,0,0,1,2.268-1.708,6.9,6.9,0,0,1,2.963-.622,7.316,7.316,0,0,1,2.329.387,6.709,6.709,0,0,1,2.086,1.127,6.014,6.014,0,0,1,1.523,1.825,5.371,5.371,0,0,1,.635,2.46h-3.749a2.568,2.568,0,0,0-.937-1.761,3.119,3.119,0,0,0-1.966-.6,2.913,2.913,0,0,0-1.542.387,3.136,3.136,0,0,0-1.039,1.031,4.608,4.608,0,0,0-.584,1.461,7.832,7.832,0,0,0,0,3.35Zm23.808,5.992H1006.4v-6.314h-4.94v6.314h-3.749V422.184h3.749v5.584h4.94v-5.584h3.749Zm5.886,0h-3.749V422.184h3.749Zm13.87,0h-11.672V422.184h11.471v3.2h-7.721v2.684h7.056v3.093h-7.056v2.921h7.922Zm14.495-4.4a6.481,6.481,0,0,1-1.4,2.416,5.92,5.92,0,0,1-2.227,1.482,8.13,8.13,0,0,1-2.943.505h-6.189V422.184h6.189a8.041,8.041,0,0,1,2.963.515,5.886,5.886,0,0,1,2.218,1.5,6.707,6.707,0,0,1,1.391,2.394,9.775,9.775,0,0,1,.484,3.19A10.438,10.438,0,0,1,1044.4,433.117Zm13.81,4.4h-11.673V422.184h11.472v3.2h-7.721v2.684h7.056v3.093h-7.056v2.921h7.923Zm12.2,0h-10.463V422.184h3.75v11.9h6.713Z" transform="translate(-964.638 -374.851)" fill="#fff"/>
  <path id="Path_133" data-name="Path 133" d="M1048.37,433.659H1046.6v8.462h1.774a6.3,6.3,0,0,0,1.824-.268,2.817,2.817,0,0,0,1.23-.762,3.155,3.155,0,0,0,.7-1.321,7.475,7.475,0,0,0,.222-1.965,4.261,4.261,0,0,0-1.018-3.125A4,4,0,0,0,1048.37,433.659Z" transform="translate(-975.841 -382.89)" fill="#fff"/>
</svg>
