<svg xmlns="http://www.w3.org/2000/svg" xmlns:xlink="http://www.w3.org/1999/xlink" width="106" height="37" viewBox="0 0 106 37">
  <defs>
    <linearGradient id="linear-gradient" x1="0.5" y1="1" x2="0.5" gradientUnits="objectBoundingBox">
      <stop offset="0" stop-color="#fcfcfd"/>
      <stop offset="1" stop-color="#fdfdfd"/>
    </linearGradient>
  </defs>
  <g id="Group_24" data-name="Group 24" transform="translate(-473.231 -1263)">
    <g id="button_m.png" transform="translate(474.231 1264)" stroke="#ec6c6b" stroke-linejoin="round" stroke-width="1" fill="url(#linear-gradient)">
      <rect width="104" height="35" rx="4" stroke="none"/>
      <rect x="-0.5" y="-0.5" width="105" height="36" rx="4.5" fill="none"/>
    </g>
    <text id="Více_info" data-name="Více info" transform="translate(526.231 1287)" fill="#ec6c6b" font-size="14" font-family="OpenSans, Open Sans"><tspan x="-27.682" y="0">Více info</tspan></text>
  </g>
</svg>
